module gitea.com/jolheiser/go-gitea

go 1.19

require (
	github.com/go-openapi/errors v0.20.3
	github.com/go-openapi/runtime v0.25.0
	github.com/go-openapi/strfmt v0.21.7
	github.com/go-openapi/swag v0.22.3
	github.com/go-openapi/validate v0.22.1
)

require (
	github.com/PuerkitoBio/purell v1.1.1 // indirect
	github.com/PuerkitoBio/urlesc v0.0.0-20170810143723-de5bf2ad4578 // indirect
	github.com/asaskevich/govalidator v0.0.0-20230301143203-a9d515a09cc2 // indirect
	github.com/go-logr/logr v1.2.3 // indirect
	github.com/go-logr/stdr v1.2.2 // indirect
	github.com/go-openapi/analysis v0.21.2 // indirect
	github.com/go-openapi/jsonpointer v0.19.5 // indirect
	github.com/go-openapi/jsonreference v0.19.6 // indirect
	github.com/go-openapi/loads v0.21.1 // indirect
	github.com/go-openapi/spec v0.20.4 // indirect
	github.com/josharian/intern v1.0.0 // indirect
	github.com/mailru/easyjson v0.7.7 // indirect
	github.com/mitchellh/mapstructure v1.5.0 // indirect
	github.com/oklog/ulid v1.3.1 // indirect
	github.com/opentracing/opentracing-go v1.2.0 // indirect
	go.mongodb.org/mongo-driver v1.11.3 // indirect
	go.opentelemetry.io/otel v1.11.1 // indirect
	go.opentelemetry.io/otel/trace v1.11.1 // indirect
	golang.org/x/net v0.0.0-20220127200216-cd36cc0744dd // indirect
	golang.org/x/text v0.3.7 // indirect
	gopkg.in/yaml.v2 v2.4.0 // indirect
	gopkg.in/yaml.v3 v3.0.1 // indirect
)
